[codingeek.net/html/riyaqas/index.html]
[backblue.gif]
[fade.gif]
[index.html]
[codingeek.net/html/riyaqas/assets/img/favicon.png]
[codingeek.net/html/riyaqas/assets/css/animate.css]
[codingeek.net/html/riyaqas/assets/css/bootstrap.min.css]
[codingeek.net/html/riyaqas/assets/css/magnific-popup.css]
[codingeek.net/html/riyaqas/assets/css/owl.carousel.min.css]
[codingeek.net/html/riyaqas/assets/css/font-awesome.min.css]
[codingeek.net/html/riyaqas/assets/css/themify-icons.css]
[codingeek.net/html/riyaqas/assets/css/flaticon.css]
[codingeek.net/html/riyaqas/assets/css/slick.css]
[codingeek.net/html/riyaqas/assets/css/animated-slider.css]
[codingeek.net/html/riyaqas/assets/css/style.css]
[codingeek.net/html/riyaqas/assets/css/responsive.css]
[codingeek.net/html/riyaqas/index-2.html]
[codingeek.net/html/riyaqas/assets/img/logo.png]
[codingeek.net/html/riyaqas/assets/img/checkout/7.png]
[codingeek.net/html/riyaqas/assets/img/checkout/8.png]
[codingeek.net/html/riyaqas/checkout.html]
[codingeek.net/html/riyaqas/home02.html]
[codingeek.net/html/riyaqas/home03.html]
[codingeek.net/html/riyaqas/home04.html]
[codingeek.net/html/riyaqas/home05.html]
[codingeek.net/html/riyaqas/home06.html]
[codingeek.net/html/riyaqas/home07.html]
[codingeek.net/html/riyaqas/home08.html]
[codingeek.net/html/riyaqas/home09.html]
[codingeek.net/html/riyaqas/shop.html]
[codingeek.net/html/riyaqas/shop-grid.html]
[codingeek.net/html/riyaqas/shop-details.html]
[codingeek.net/html/riyaqas/blog.html]
[codingeek.net/html/riyaqas/blog-grid.html]
[codingeek.net/html/riyaqas/blog-details.html]
[codingeek.net/html/riyaqas/about.html]
[codingeek.net/html/riyaqas/service.html]
[codingeek.net/html/riyaqas/team.html]
[codingeek.net/html/riyaqas/pricing.html]
[codingeek.net/html/riyaqas/gallery.html]
[codingeek.net/html/riyaqas/faq.html]
[codingeek.net/html/riyaqas/offer.html]
[codingeek.net/html/riyaqas/error.html]
[codingeek.net/html/riyaqas/comming-soon.html]
[codingeek.net/html/riyaqas/work-processing.html]
[codingeek.net/html/riyaqas/job-listing.html]
[codingeek.net/html/riyaqas/job-details.html]
[codingeek.net/html/riyaqas/job-apply.html]
[codingeek.net/html/riyaqas/contact.html]
[codingeek.net/html/riyaqas/assets/img/bg/banner-bg.png]
[codingeek.net/html/riyaqas/assets/img/banner/1.png]
[codingeek.net/html/riyaqas/assets/img/banner/2.png]
[codingeek.net/html/riyaqas/assets/img/banner/3.png]
[codingeek.net/html/riyaqas/assets/img/banner/01.png]
[codingeek.net/html/riyaqas/assets/img/banner/02.png]
[codingeek.net/html/riyaqas/assets/img/banner/03.png]
[codingeek.net/html/riyaqas/assets/img/service/project.png]
[codingeek.net/html/riyaqas/assets/img/service/arrow.png]
[codingeek.net/html/riyaqas/assets/img/service/hiring.png]
[codingeek.net/html/riyaqas/assets/img/service/checklist.png]
[codingeek.net/html/riyaqas/assets/img/service/analytics.png]
[codingeek.net/html/riyaqas/assets/img/bg/1h1.png]
[codingeek.net/html/riyaqas/assets/img/we-provide/5.png]
[codingeek.net/html/riyaqas/assets/img/icons/check.png]
[codingeek.net/html/riyaqas/assets/img/others/map.png]
[codingeek.net/html/riyaqas/assets/img/bg/1h2.png]
[codingeek.net/html/riyaqas/assets/img/business-tool/1.png]
[codingeek.net/html/riyaqas/assets/img/business-tool/pencil.png]
[codingeek.net/html/riyaqas/assets/img/business-tool/search.png]
[codingeek.net/html/riyaqas/assets/img/business-tool/settings.png]
[codingeek.net/html/riyaqas/assets/img/we-provide/1.png]
[codingeek.net/html/riyaqas/assets/img/we-provide/3.png]
[codingeek.net/html/riyaqas/assets/img/bg/1h3.png]
[codingeek.net/html/riyaqas/assets/img/client/4.png]
[codingeek.net/html/riyaqas/assets/img/client/5.png]
[codingeek.net/html/riyaqas/assets/img/client/6.png]
[codingeek.net/html/riyaqas/assets/img/bg/footer.png]
[codingeek.net/html/riyaqas/assets/js/jquery-2.2.4.min.js]
[codingeek.net/html/riyaqas/assets/js/popper.min.js]
[codingeek.net/html/riyaqas/assets/js/bootstrap.min.js]
[codingeek.net/html/riyaqas/assets/js/jquery.magnific-popup.js]
[codingeek.net/html/riyaqas/assets/js/wow.min.js]
[codingeek.net/html/riyaqas/assets/js/owl.carousel.min.js]
[codingeek.net/html/riyaqas/assets/js/slick.js]
[codingeek.net/html/riyaqas/assets/js/jquery.cssslider.min.js]
[codingeek.net/html/riyaqas/assets/js/waypoints.min.js]
[codingeek.net/html/riyaqas/assets/js/jquery.counterup.min.js]
[codingeek.net/html/riyaqas/assets/js/imagesloaded.pkgd.min.js]
[codingeek.net/html/riyaqas/assets/js/isotope.pkgd.min.js]
[codingeek.net/html/riyaqas/assets/js/worldmap-libs.js]
[codingeek.net/html/riyaqas/assets/js/worldmap-topojson.js]
[codingeek.net/html/riyaqas/assets/js/main.js]
[codingeek.net/html/riyaqas/index.html]
[codingeek.net/html/riyaqas/assets/css/animate.css]
[codingeek.net/html/riyaqas/assets/css/bootstrap.min.css]
[codingeek.net/html/riyaqas/assets/css/magnific-popup.css]
[codingeek.net/html/riyaqas/assets/css/owl.video.play.png]
[codingeek.net/html/riyaqas/assets/css/owl.carousel.min.css]
[codingeek.net/html/riyaqas/assets/fonts/fontawesome-webfont3e6e.eot]
[codingeek.net/html/riyaqas/assets/fonts/fontawesome-webfontd41d.eot]
[codingeek.net/html/riyaqas/assets/fonts/fontawesome-webfont3e6e.woff2]
[codingeek.net/html/riyaqas/assets/fonts/fontawesome-webfont3e6e.ttf]
[codingeek.net/html/riyaqas/assets/fonts/fontawesome-webfont3e6e.woff]
[codingeek.net/html/riyaqas/assets/css/font-awesome.min.css]
[codingeek.net/html/riyaqas/assets/fonts/fontawesome-webfont3e6e.svg]
[codingeek.net/html/riyaqas/assets/fonts/themify9f24.eot]
[codingeek.net/html/riyaqas/assets/fonts/themifyd41d.eot]
[codingeek.net/html/riyaqas/assets/fonts/themify9f24.woff]
[codingeek.net/html/riyaqas/assets/fonts/themify9f24.ttf]
[codingeek.net/html/riyaqas/assets/css/themify-icons.css]
[codingeek.net/html/riyaqas/assets/fonts/themify9f24.svg]
[codingeek.net/html/riyaqas/assets/fonts/Flaticon.eot]
[codingeek.net/html/riyaqas/assets/fonts/Flaticond41d.eot]
[codingeek.net/html/riyaqas/assets/fonts/Flaticon.woff2]
[codingeek.net/html/riyaqas/assets/fonts/Flaticon.woff]
[codingeek.net/html/riyaqas/assets/fonts/Flaticon.ttf]
[codingeek.net/html/riyaqas/assets/css/flaticon.css]
[codingeek.net/html/riyaqas/assets/css/slick.css]
[codingeek.net/html/riyaqas/assets/css/animated-slider.css]
[codingeek.net/html/riyaqas/assets/fonts/Flaticon.svg]
[codingeek.net/html/riyaqas/assets/img/bg/breadcrumb-bg.jpg]
[codingeek.net/html/riyaqas/assets/img/service/bg.png]
[codingeek.net/html/riyaqas/assets/img/app/banner/bg1.png]
[codingeek.net/html/riyaqas/assets/img/app/banner/bg2.png]
[codingeek.net/html/riyaqas/assets/img/startup/team/4.png]
[codingeek.net/html/riyaqas/assets/img/bg/8h1.png]
[codingeek.net/html/riyaqas/assets/img/startup/skill/2.png]
[codingeek.net/html/riyaqas/assets/img/startup/skill/3.png]
[codingeek.net/html/riyaqas/assets/img/bg/8h4.png]
[codingeek.net/html/riyaqas/assets/img/bg/8h5.png]
[codingeek.net/html/riyaqas/assets/img/screenshot/mockup.png]
[codingeek.net/html/riyaqas/assets/img/business/testimonial/5.png]
[codingeek.net/html/riyaqas/assets/img/business/testimonial/1.png]
[codingeek.net/html/riyaqas/assets/img/business/testimonial/left.png]
[codingeek.net/html/riyaqas/assets/img/business/testimonial/right.png]
[codingeek.net/html/riyaqas/assets/img/startup/team/bg.png]
[codingeek.net/html/riyaqas/assets/css/style.css]
[codingeek.net/html/riyaqas/assets/css/responsive.css]
[codingeek.net/html/riyaqas/index-2.html]
[codingeek.net/html/riyaqas/assets/css/nice-select.css]
[codingeek.net/html/riyaqas/assets/img/others/signin.png]
[codingeek.net/html/riyaqas/assets/img/page-title-bg.png]
[codingeek.net/html/riyaqas/assets/img/checkout/1.png]
[codingeek.net/html/riyaqas/assets/img/checkout/2.png]
[codingeek.net/html/riyaqas/assets/img/checkout/3.png]
[codingeek.net/html/riyaqas/assets/img/checkout/4.png]
[codingeek.net/html/riyaqas/assets/img/checkout/5.png]
[codingeek.net/html/riyaqas/assets/js/jquery.nice-select.min.js]
[codingeek.net/html/riyaqas/checkout.html]
[codingeek.net/html/riyaqas/assets/img/banner/4.png]
[codingeek.net/html/riyaqas/assets/img/banner/5.png]
[codingeek.net/html/riyaqas/assets/img/banner/66.png]
[codingeek.net/html/riyaqas/assets/img/banner/066.png]
[codingeek.net/html/riyaqas/assets/img/right-arrow.png]
[codingeek.net/html/riyaqas/assets/img/features/1.png]
[codingeek.net/html/riyaqas/assets/img/features/2.png]
[codingeek.net/html/riyaqas/assets/img/features/3.png]
[codingeek.net/html/riyaqas/assets/img/features/4.png]
[codingeek.net/html/riyaqas/assets/img/we-provide/01.png]
[codingeek.net/html/riyaqas/assets/img/we-provide/4.png]
[codingeek.net/html/riyaqas/assets/img/screenshot/1.png]
[codingeek.net/html/riyaqas/assets/img/screenshot/2.png]
[codingeek.net/html/riyaqas/assets/img/screenshot/3.png]
[codingeek.net/html/riyaqas/assets/img/screenshot/4.png]
[codingeek.net/html/riyaqas/assets/img/screenshot/5.png]
[codingeek.net/html/riyaqas/assets/img/price/1.png]
[codingeek.net/html/riyaqas/assets/img/price/2.png]
[codingeek.net/html/riyaqas/assets/img/price/3.png]
[codingeek.net/html/riyaqas/assets/img/price/4.png]
[codingeek.net/html/riyaqas/assets/img/client/1.png]
[codingeek.net/html/riyaqas/assets/img/client/2.png]
[codingeek.net/html/riyaqas/assets/img/client/3.png]
[codingeek.net/html/riyaqas/assets/img/blog/widget1.png]
[codingeek.net/html/riyaqas/assets/img/blog/widget2.png]
[codingeek.net/html/riyaqas/home02.html]
[codingeek.net/html/riyaqas/assets/img/startup/slider/1.png]
[codingeek.net/html/riyaqas/assets/img/startup/slider/2.png]
[codingeek.net/html/riyaqas/assets/img/startup/slider/3.png]
[codingeek.net/html/riyaqas/assets/img/startup/slider/4.png]
[codingeek.net/html/riyaqas/assets/img/startup/slider/5.png]
[codingeek.net/html/riyaqas/assets/img/startup/service/1.png]
[codingeek.net/html/riyaqas/assets/img/startup/service/2.png]
[codingeek.net/html/riyaqas/assets/img/startup/service/3.png]
[codingeek.net/html/riyaqas/assets/img/startup/service/4.png]
[codingeek.net/html/riyaqas/assets/img/startup/why-choose/2.png]
[codingeek.net/html/riyaqas/assets/img/startup/why-choose/1.png]
[codingeek.net/html/riyaqas/assets/img/startup/skill/1.png]
[codingeek.net/html/riyaqas/assets/img/startup/offer/1.png]
[codingeek.net/html/riyaqas/assets/img/startup/offer/2.png]
[codingeek.net/html/riyaqas/assets/img/startup/offer/3.png]
[codingeek.net/html/riyaqas/assets/img/startup/offer/4.png]
[codingeek.net/html/riyaqas/assets/img/startup/offer/5.png]
[codingeek.net/html/riyaqas/assets/img/startup/offer/6.png]
[codingeek.net/html/riyaqas/assets/img/startup/team/1.jpg]
[codingeek.net/html/riyaqas/assets/img/startup/team/2.jpg]
[codingeek.net/html/riyaqas/assets/img/startup/team/3.jpg]
[codingeek.net/html/riyaqas/assets/img/startup/team/5.png]
[codingeek.net/html/riyaqas/assets/img/startup/client/1.png]
[codingeek.net/html/riyaqas/assets/img/startup/client/2.png]
[codingeek.net/html/riyaqas/assets/img/startup/client/3.png]
[codingeek.net/html/riyaqas/assets/img/startup/client/4.png]
[codingeek.net/html/riyaqas/assets/img/startup/client/5.png]
[codingeek.net/html/riyaqas/assets/img/business/testimonial/2.png]
[codingeek.net/html/riyaqas/assets/img/business/testimonial/3.png]
[codingeek.net/html/riyaqas/assets/img/business/testimonial/4.png]
[codingeek.net/html/riyaqas/home03.html]
[codingeek.net/html/riyaqas/assets/img/sticky-logo.png]
[codingeek.net/html/riyaqas/assets/img/bg/sbbs-bg.png]
[codingeek.net/html/riyaqas/assets/img/banner/s1.png]
[codingeek.net/html/riyaqas/assets/img/banner/s2.png]
[codingeek.net/html/riyaqas/assets/img/banner/6.png]
[codingeek.net/html/riyaqas/assets/img/banner/play.png]
[codingeek.net/html/riyaqas/assets/img/icons/f1.png]
[codingeek.net/html/riyaqas/assets/img/icons/f2.png]
[codingeek.net/html/riyaqas/assets/img/icons/f3.png]
[codingeek.net/html/riyaqas/assets/img/others/4.png]
[codingeek.net/html/riyaqas/assets/img/others/5.png]
[codingeek.net/html/riyaqas/assets/img/others/6.png]
[codingeek.net/html/riyaqas/assets/js/type.min.js]
[codingeek.net/html/riyaqas/home04.html]
[codingeek.net/html/riyaqas/assets/img/bg/h5banner.png]
[codingeek.net/html/riyaqas/assets/img/banner/8.png]
[codingeek.net/html/riyaqas/assets/img/startup/team/t1.png]
[codingeek.net/html/riyaqas/assets/img/icons/t1.png]
[codingeek.net/html/riyaqas/assets/img/icons/t2.png]
[codingeek.net/html/riyaqas/assets/img/icons/t3.png]
[codingeek.net/html/riyaqas/assets/img/startup/team/t2.png]
[codingeek.net/html/riyaqas/assets/img/startup/team/t3.png]
[codingeek.net/html/riyaqas/assets/img/others/7.png]
[codingeek.net/html/riyaqas/assets/img/blog/8.png]
[codingeek.net/html/riyaqas/assets/img/blog/9.png]
[codingeek.net/html/riyaqas/assets/img/blog/10.png]
[codingeek.net/html/riyaqas/home05.html]
[codingeek.net/html/riyaqas/assets/img/banner/7.png]
[codingeek.net/html/riyaqas/assets/img/banner/07.png]
[codingeek.net/html/riyaqas/assets/img/icons/s01.png]
[codingeek.net/html/riyaqas/assets/img/icons/s02.png]
[codingeek.net/html/riyaqas/assets/img/icons/s03.png]
[codingeek.net/html/riyaqas/assets/img/icons/s04.png]
[codingeek.net/html/riyaqas/assets/img/others/10.png]
[codingeek.net/html/riyaqas/assets/img/icons/t4.png]
[codingeek.net/html/riyaqas/assets/img/icons/t5.png]
[codingeek.net/html/riyaqas/assets/img/icons/t6.png]
[codingeek.net/html/riyaqas/assets/img/others/9.png]
[codingeek.net/html/riyaqas/assets/img/others/m1.png]
[codingeek.net/html/riyaqas/assets/img/icons/link.png]
[codingeek.net/html/riyaqas/assets/img/others/m2.png]
[codingeek.net/html/riyaqas/assets/img/others/m3.png]
[codingeek.net/html/riyaqas/assets/img/others/8.png]
[codingeek.net/html/riyaqas/assets/img/shop/1.png]
[codingeek.net/html/riyaqas/assets/img/shop/2.png]
[codingeek.net/html/riyaqas/assets/img/shop/3.png]
[codingeek.net/html/riyaqas/assets/img/shop/4.png]
[codingeek.net/html/riyaqas/assets/img/shop/7.png]
[codingeek.net/html/riyaqas/assets/img/shop/9.png]
[codingeek.net/html/riyaqas/assets/img/shop/10.png]
[codingeek.net/html/riyaqas/assets/img/shop/11.png]
[codingeek.net/html/riyaqas/home06.html]
[codingeek.net/html/riyaqas/assets/img/banner/9.png]
[codingeek.net/html/riyaqas/assets/img/banner/10.png]
[codingeek.net/html/riyaqas/assets/img/service/1.png]
[codingeek.net/html/riyaqas/assets/img/service/2.png]
[codingeek.net/html/riyaqas/assets/img/service/3.png]
[codingeek.net/html/riyaqas/assets/img/service/4.png]
[codingeek.net/html/riyaqas/assets/img/others/11.png]
[codingeek.net/html/riyaqas/assets/img/others/12.png]
[codingeek.net/html/riyaqas/assets/img/others/13.png]
[codingeek.net/html/riyaqas/assets/img/others/14.png]
[codingeek.net/html/riyaqas/assets/img/others/15.png]
[codingeek.net/html/riyaqas/assets/img/others/16.png]
[codingeek.net/html/riyaqas/home07.html]
[codingeek.net/html/riyaqas/assets/img/banner/11.png]
[codingeek.net/html/riyaqas/assets/img/banner/12.png]
[codingeek.net/html/riyaqas/assets/img/startup/client/6.png]
[codingeek.net/html/riyaqas/assets/img/startup/client/7.png]
[codingeek.net/html/riyaqas/assets/img/startup/client/8.png]
[codingeek.net/html/riyaqas/assets/img/startup/client/9.png]
[codingeek.net/html/riyaqas/assets/img/startup/client/10.png]
[codingeek.net/html/riyaqas/assets/img/startup/client/11.png]
[codingeek.net/html/riyaqas/assets/img/icons/s21.png]
[codingeek.net/html/riyaqas/assets/img/icons/s22.png]
[codingeek.net/html/riyaqas/assets/img/icons/s23.png]
[codingeek.net/html/riyaqas/assets/img/icons/s24.png]
[codingeek.net/html/riyaqas/assets/img/bg/8h2.png]
[codingeek.net/html/riyaqas/assets/img/icons/ss1.png]
[codingeek.net/html/riyaqas/assets/img/icons/ss2.png]
[codingeek.net/html/riyaqas/assets/img/icons/ss3.png]
[codingeek.net/html/riyaqas/assets/img/icons/ss4.png]
[codingeek.net/html/riyaqas/assets/img/icons/ss5.png]
[codingeek.net/html/riyaqas/assets/img/icons/ss6.png]
[codingeek.net/html/riyaqas/assets/img/icons/ss7.png]
[codingeek.net/html/riyaqas/assets/img/icons/ss8.png]
[codingeek.net/html/riyaqas/assets/img/icons/ss9.png]
[codingeek.net/html/riyaqas/assets/img/icons/ss10.png]
[codingeek.net/html/riyaqas/assets/img/bg/8h3.png]
[codingeek.net/html/riyaqas/assets/img/others/17.png]
[codingeek.net/html/riyaqas/assets/img/others/18.png]
[codingeek.net/html/riyaqas/assets/img/icons/check2.png]
[codingeek.net/html/riyaqas/assets/img/others/19.png]
[codingeek.net/html/riyaqas/assets/img/shop/12.png]
[codingeek.net/html/riyaqas/assets/img/shop/13.png]
[codingeek.net/html/riyaqas/assets/img/shop/14.png]
[codingeek.net/html/riyaqas/assets/img/shop/15.png]
[codingeek.net/html/riyaqas/assets/img/shop/16.png]
[codingeek.net/html/riyaqas/assets/img/shop/17.png]
[codingeek.net/html/riyaqas/assets/img/shop/18.png]
[codingeek.net/html/riyaqas/assets/img/shop/19.png]
[codingeek.net/html/riyaqas/home08.html]
[codingeek.net/html/riyaqas/assets/js/jarallax.min.js]
[codingeek.net/html/riyaqas/assets/img/bg/8h6.png]
[codingeek.net/html/riyaqas/assets/img/banner/13.png]
[codingeek.net/html/riyaqas/assets/img/banner/14.png]
[codingeek.net/html/riyaqas/assets/img/others/20.png]
[codingeek.net/html/riyaqas/assets/img/icons/check3.png]
[codingeek.net/html/riyaqas/assets/img/price/5.png]
[codingeek.net/html/riyaqas/assets/img/price/6.png]
[codingeek.net/html/riyaqas/assets/img/price/7.png]
[codingeek.net/html/riyaqas/assets/img/price/8.png]
[codingeek.net/html/riyaqas/assets/img/icons/ss11.png]
[codingeek.net/html/riyaqas/assets/img/icons/ss12.png]
[codingeek.net/html/riyaqas/assets/img/icons/ss13.png]
[codingeek.net/html/riyaqas/assets/img/icons/ss14.png]
[codingeek.net/html/riyaqas/assets/img/icons/ss15.png]
[codingeek.net/html/riyaqas/assets/img/icons/ss16.png]
[codingeek.net/html/riyaqas/assets/img/blog/comments/1.png]
[codingeek.net/html/riyaqas/assets/img/blog/comments/2.png]
[codingeek.net/html/riyaqas/assets/img/blog/comments/3.png]
[codingeek.net/html/riyaqas/home09.html]
[codingeek.net/html/riyaqas/assets/img/shop/5.png]
[codingeek.net/html/riyaqas/assets/img/shop/6.png]
[codingeek.net/html/riyaqas/assets/img/shop/8.png]
[codingeek.net/html/riyaqas/shop.html]
[codingeek.net/html/riyaqas/assets/css/jquery-ui.min.css]
[codingeek.net/html/riyaqas/shop-grid.html]
[codingeek.net/html/riyaqas/assets/js/jquery-ui.min.js]
[codingeek.net/html/riyaqas/assets/img/checkout/6.png]
[codingeek.net/html/riyaqas/assets/img/shop-details/01.png]
[codingeek.net/html/riyaqas/assets/img/shop-details/02.png]
[codingeek.net/html/riyaqas/assets/img/shop-details/03.png]
[codingeek.net/html/riyaqas/assets/img/shop-details/1.png]
[codingeek.net/html/riyaqas/assets/img/shop-details/2.png]
[codingeek.net/html/riyaqas/assets/img/shop-details/3.png]
[codingeek.net/html/riyaqas/shop-details.html]
[codingeek.net/html/riyaqas/assets/img/blog/1.png]
[codingeek.net/html/riyaqas/assets/img/blog/2.png]
[codingeek.net/html/riyaqas/assets/img/blog/3.png]
[codingeek.net/html/riyaqas/assets/img/blog/4.png]
[codingeek.net/html/riyaqas/assets/img/blog/5.png]
[codingeek.net/html/riyaqas/assets/img/blog/6.png]
[codingeek.net/html/riyaqas/assets/img/blog/7.png]
[codingeek.net/html/riyaqas/blog.html]
[codingeek.net/html/riyaqas/assets/img/blog/blog-grid/1.png]
[codingeek.net/html/riyaqas/assets/img/blog/blog-grid/2.png]
[codingeek.net/html/riyaqas/assets/img/blog/blog-grid/5.png]
[codingeek.net/html/riyaqas/assets/img/blog/blog-grid/4.png]
[codingeek.net/html/riyaqas/assets/img/blog/blog-grid/3.png]
[codingeek.net/html/riyaqas/blog-grid.html]
[codingeek.net/html/riyaqas/blog-details.html]
[codingeek.net/html/riyaqas/about.html]
[codingeek.net/html/riyaqas/assets/img/service/5.png]
[codingeek.net/html/riyaqas/assets/img/service/6.png]
[codingeek.net/html/riyaqas/assets/img/service/7.png]
[codingeek.net/html/riyaqas/assets/img/service/8.png]
[codingeek.net/html/riyaqas/service.html]
[codingeek.net/html/riyaqas/assets/img/startup/team/6.png]
[codingeek.net/html/riyaqas/assets/img/startup/team/7.png]
[codingeek.net/html/riyaqas/assets/img/startup/team/8.png]
[codingeek.net/html/riyaqas/assets/img/startup/team/9.png]
[codingeek.net/html/riyaqas/team.html]
[codingeek.net/html/riyaqas/pricing.html]
[codingeek.net/html/riyaqas/assets/img/gallery/1.png]
[codingeek.net/html/riyaqas/assets/img/gallery/2.png]
[codingeek.net/html/riyaqas/assets/img/gallery/3.png]
[codingeek.net/html/riyaqas/assets/img/gallery/4.png]
[codingeek.net/html/riyaqas/assets/img/gallery/5.png]
[codingeek.net/html/riyaqas/assets/img/gallery/6.png]
[codingeek.net/html/riyaqas/assets/img/gallery/7.png]
[codingeek.net/html/riyaqas/assets/img/gallery/8.png]
[codingeek.net/html/riyaqas/assets/img/gallery/9.png]
[codingeek.net/html/riyaqas/gallery.html]
[codingeek.net/html/riyaqas/assets/img/icons/c1.png]
[codingeek.net/html/riyaqas/assets/img/icons/c2.png]
[codingeek.net/html/riyaqas/assets/img/icons/c3.png]
[codingeek.net/html/riyaqas/faq.html]
[codingeek.net/html/riyaqas/offer.html]
[codingeek.net/html/riyaqas/assets/img/others/3.png]
[codingeek.net/html/riyaqas/assets/img/others/2.png]
[codingeek.net/html/riyaqas/assets/img/others/1.png]
[codingeek.net/html/riyaqas/error.html]
[codingeek.net/html/riyaqas/assets/img/comming-soon.png]
[codingeek.net/html/riyaqas/assets/js/countdown.js]
[codingeek.net/html/riyaqas/comming-soon.html]
[codingeek.net/html/riyaqas/assets/img/work-processing/1.png]
[codingeek.net/html/riyaqas/assets/img/work-processing/2.png]
[codingeek.net/html/riyaqas/assets/img/work-processing/3.png]
[codingeek.net/html/riyaqas/assets/img/work-processing/4.png]
[codingeek.net/html/riyaqas/assets/img/work-processing/5.png]
[codingeek.net/html/riyaqas/work-processing.html]
[codingeek.net/html/riyaqas/assets/img/icons/j1.png]
[codingeek.net/html/riyaqas/assets/img/icons/j2.png]
[codingeek.net/html/riyaqas/assets/img/icons/j3.png]
[codingeek.net/html/riyaqas/assets/img/icons/j4.png]
[codingeek.net/html/riyaqas/assets/img/icons/j5.png]
[codingeek.net/html/riyaqas/assets/img/icons/j6.png]
[codingeek.net/html/riyaqas/job-listing.html]
[codingeek.net/html/riyaqas/assets/img/icons/1.png]
[codingeek.net/html/riyaqas/assets/img/icons/2.png]
[codingeek.net/html/riyaqas/assets/img/icons/3.png]
[codingeek.net/html/riyaqas/assets/img/icons/4.png]
[codingeek.net/html/riyaqas/assets/img/icons/5.png]
[codingeek.net/html/riyaqas/job-details.html]
[codingeek.net/html/riyaqas/job-apply.html]
[codingeek.net/html/riyaqas/assets/js/goolg-map-activate.js]
[codingeek.net/html/riyaqas/contact.html]
[codingeek.net/html/riyaqas/assets/js/jquery-2.2.4.min.js]
[codingeek.net/html/riyaqas/assets/js/popper.min.js]
[codingeek.net/html/riyaqas/popper.js]
[codingeek.net/html/riyaqas/assets/js/bootstrap.min.js]
[codingeek.net/html/riyaqas/assets/js/jquery.magnific-popup.js]
[codingeek.net/html/riyaqas/assets/js/wow.min.js]
[codingeek.net/html/riyaqas/assets/js/owl.carousel.min.js]
[codingeek.net/html/riyaqas/assets/js/slick.js]
[codingeek.net/html/riyaqas/assets/js/jquery.cssslider.min.js]
[codingeek.net/html/riyaqas/assets/js/waypoints.min.js]
[codingeek.net/html/riyaqas/assets/js/jquery.counterup.min.js]
[codingeek.net/html/riyaqas/assets/js/imagesloaded.pkgd.min.js]
[codingeek.net/html/riyaqas/assets/js/isotope.pkgd.min.js]
[codingeek.net/html/riyaqas/assets/js/worldmap-libs.js]
[codingeek.net/html/riyaqas/assets/js/worldmap-topojson.js]
[codingeek.net/html/riyaqas/assets/js/main.js]
[codingeek.net/html/riyaqas/assets/css/owl.video.play.html]
[codingeek.net/html/riyaqas/assets/fonts/fontawesome-webfont3e6e.svg]
[codingeek.net/html/riyaqas/assets/fonts/themify9f24.svg]
[codingeek.net/html/riyaqas/assets/fonts/Flaticon.svg]
[codingeek.net/html/riyaqas/assets/img/bg/breadcrumb-bg.html]
[codingeek.net/html/riyaqas/assets/css/nice-select.css]
[codingeek.net/html/riyaqas/assets/js/jquery.nice-select.min.js]
[codingeek.net/html/riyaqas/assets/js/type.min.js]
[codingeek.net/html/riyaqas/assets/js/jarallax.min.js]
[codingeek.net/html/riyaqas/Trident/index.html]
[codingeek.net/html/riyaqas/Edge/index.html]
[codingeek.net/html/riyaqas/assets/css/images/ui-icons_444444_256x240.171.delayed]
[codingeek.net/html/riyaqas/assets/css/images/ui-icons_555555_256x240.png]
[codingeek.net/html/riyaqas/assets/css/images/ui-icons_ffffff_256x240.png]
[codingeek.net/html/riyaqas/assets/css/images/ui-icons_777620_256x240.png]
[codingeek.net/html/riyaqas/assets/css/images/ui-icons_cc0000_256x240.png]
[codingeek.net/html/riyaqas/assets/css/images/ui-icons_777777_256x240.png]
[codingeek.net/html/riyaqas/assets/css/jquery-ui.min.css]
[codingeek.net/html/riyaqas/assets/js/jquery-ui.min.js]
[codingeek.net/html/riyaqas/assets/js/countdown.js]
[codingeek.net/html/riyaqas/assets/js/goolg-map-activate.js]
[codingeek.net/html/riyaqas/popper.html]
[codingeek.net/html/riyaqas/Trident/index.html]
[codingeek.net/html/riyaqas/Edge/index.html]
[codingeek.net/html/riyaqas/assets/css/images/ui-icons_444444_256x240.html]
[codingeek.net/html/riyaqas/assets/css/images/ui-icons_555555_256x240.html]
[codingeek.net/html/riyaqas/assets/css/images/ui-icons_ffffff_256x240.html]
[codingeek.net/html/riyaqas/assets/css/images/ui-icons_777620_256x240.html]
[codingeek.net/html/riyaqas/assets/css/images/ui-icons_cc0000_256x240.html]
[codingeek.net/html/riyaqas/assets/css/images/ui-icons_777777_256x240.html]
